{"hash":"0000129357b674b9c7b772f6d4b7d82f392316ec","data":{"repos":{"totalCount":12,"pageInfo":{"totalPages":6,"currentPage":3},"edges":[{"node":{"id":"320522681","name":"shibin-cli.github.io","description":"","forks_count":0,"watchers_count":0,"stargazers_count":0,"language":"HTML","html_url":"https://github.com/shibin-cli/shibin-cli.github.io","created_at":"2020-12-11T09:11:29Z","updated_at":"2020-12-11T09:39:07Z","license":null}},{"node":{"id":"316447659","name":"realworld","description":"vue nuxt realword","forks_count":0,"watchers_count":0,"stargazers_count":0,"language":"CSS","html_url":"https://github.com/shibin-cli/realworld","created_at":"2020-11-27T08:49:52Z","updated_at":"2020-12-07T14:01:30Z","license":null}}]}},"context":{}}