{"hash":"0000129357b674b9c7b772f6d4b7d82f392316ec","data":{"repos":{"totalCount":12,"pageInfo":{"totalPages":6,"currentPage":6},"edges":[{"node":{"id":"305241344","name":"hello","description":"","forks_count":0,"watchers_count":0,"stargazers_count":0,"language":"Vue","html_url":"https://github.com/shibin-cli/hello","created_at":"2020-10-19T02:23:40Z","updated_at":"2020-11-26T03:55:27Z","license":null}},{"node":{"id":"303722666","name":"docs-next-zh-cn","description":":cn: Chinese translation for v3.vuejs.org","forks_count":0,"watchers_count":0,"stargazers_count":0,"language":"Vue","html_url":"https://github.com/shibin-cli/docs-next-zh-cn","created_at":"2020-10-13T14:04:09Z","updated_at":"2020-11-26T03:54:50Z","license":{"name":"MIT License","key":"mit"}}}]}},"context":{}}