{"hash":"5eb6084b96e63b257be9acca55641fdb96b15dfd","data":{"repos":{"totalCount":12,"pageInfo":{"totalPages":6,"currentPage":5},"edges":[{"node":{"id":"315331649","name":"learn","description":"","forks_count":0,"watchers_count":0,"stargazers_count":0,"language":"","html_url":"https://github.com/shibin-cli/learn","created_at":"2020-11-23T13:56:05Z","updated_at":"2020-11-23T13:56:09Z","license":null}},{"node":{"id":"303561461","name":"helloword","description":"","forks_count":0,"watchers_count":0,"stargazers_count":0,"language":"Vue","html_url":"https://github.com/shibin-cli/helloword","created_at":"2020-10-13T02:03:29Z","updated_at":"2020-10-13T07:34:31Z","license":null}}]}},"context":{}}