{"hash":"0000129357b674b9c7b772f6d4b7d82f392316ec","data":{"repos":{"totalCount":12,"pageInfo":{"totalPages":6,"currentPage":4},"edges":[{"node":{"id":"304338644","name":"nuxt-app","description":"","forks_count":0,"watchers_count":0,"stargazers_count":0,"language":"Vue","html_url":"https://github.com/shibin-cli/nuxt-app","created_at":"2020-10-15T13:41:18Z","updated_at":"2020-10-19T00:50:15Z","license":null}},{"node":{"id":"319918398","name":"my-ui","description":"","forks_count":0,"watchers_count":0,"stargazers_count":0,"language":"JavaScript","html_url":"https://github.com/shibin-cli/my-ui","created_at":"2020-12-09T10:19:14Z","updated_at":"2020-12-10T10:38:22Z","license":null}}]}},"context":{}}