{"hash":"5eb6084b96e63b257be9acca55641fdb96b15dfd","data":{"repos":{"totalCount":12,"pageInfo":{"totalPages":6,"currentPage":1},"edges":[{"node":{"id":"314097727","name":"vuex","description":"ğŸ—ƒï¸ Centralized State Management for Vue.js.","forks_count":0,"watchers_count":0,"stargazers_count":0,"language":"JavaScript","html_url":"https://github.com/shibin-cli/vuex","created_at":"2020-11-19T00:55:45Z","updated_at":"2020-11-26T03:56:30Z","license":{"name":"MIT License","key":"mit"}}},{"node":{"id":"304575813","name":"vue-project","description":"","forks_count":0,"watchers_count":0,"stargazers_count":0,"language":"Vue","html_url":"https://github.com/shibin-cli/vue-project","created_at":"2020-10-16T09:09:34Z","updated_at":"2020-10-20T02:19:33Z","license":null}}]}},"context":{}}