{"hash":"0000129357b674b9c7b772f6d4b7d82f392316ec","data":{"glist":{"totalCount":3,"pageInfo":{"totalPages":2,"currentPage":2},"edges":[{"node":{"id":"47b9f733fca19446bf076d75e4a3a087","title":"标题","description":"说明","created_at":"2020-12-14T09:23:32Z","updated_at":"2020-12-14T09:23:33Z"}}]}},"context":{}}