{"hash":"0000129357b674b9c7b772f6d4b7d82f392316ec","data":{"glist":{"totalCount":3,"pageInfo":{"totalPages":2,"currentPage":1},"edges":[{"node":{"id":"50b0c403590f1b65373dee94ea098a19","title":"哈哈哈哈","description":"哈哈哈哈","created_at":"2020-12-11T09:46:04Z","updated_at":"2020-12-11T09:46:04Z"}},{"node":{"id":"4f821f65848157e235a940b641946fd2","title":"哈哈哈好吧","description":"哈哈哈好吧","created_at":"2020-12-11T09:46:32Z","updated_at":"2020-12-11T09:46:32Z"}}]}},"context":{}}